How has GDP changed over time? · Forty
…
pct_diff<-GDP_data %>% 
  mutate(
    pct_diff=(GDP_estimate-GDP)/GDP*100,
    abs_pct_diff=abs(pct_diff) #Calculates the absolute value of the percentage differences
    ) %>% 
  select(-c("Gross capital formation", 
            "Exports",
            "Government expenditure",
            "Household expenditure",
            "Imports"
          )
        )
pct_diff

## # A tibble: 864 x 9
##    CountryID Country  `2018`  `2019` year    GDP GDP_estimate pct_diff
##        <dbl> <chr>     <dbl>   <dbl> <chr> <dbl>        <dbl>    <dbl>
##  1       276 Germany 1.88e12 1.91e12 1970     NA           NA       NA
##  2       276 Germany 1.88e12 1.91e12 1971     NA           NA       NA
##  3       276 Germany 1.88e12 1.91e12 1972     NA           NA       NA
##  4       276 Germany 1.88e12 1.91e12 1973     NA           NA       NA
##  5       276 Germany 1.88e12 1.91e12 1974     NA           NA       NA
##  6       276 Germany 1.88e12 1.91e12 1975     NA           NA       NA
##  7       276 Germany 1.88e12 1.91e12 1976     NA           NA       NA
##  8       276 Germany 1.88e12 1.91e12 1977     NA           NA       NA
##  9       276 Germany 1.88e12 1.91e12 1978     NA           NA       NA
## 10       276 Germany 1.88e12 1.91e12 1979     NA           NA       NA
## # … with 854 more rows, and 1 more variable: abs_pct_diff <dbl>
…
