…
vaccinations %>% 
  group_by(fips) %>% 
  summarize(date_count=n_distinct(date)) #There are multiple dates associated with each FIPS region. We need to select the latest date.

## # A tibble: 3,224 x 2
##    fips  date_count
##    <chr>      <int>
##  1 01001        207
##  2 01003        207
##  3 01005        207
##  4 01007        207
##  5 01009        207
##  6 01011        207
##  7 01013        207
##  8 01015        206
##  9 01017        207
## 10 01019        207
## # … with 3,214 more rows
…
